Removed Pin From Net: NetName=GND Pin=U9-2
Removed Pin From Net: NetName=GND Pin=U10-2
Removed Pin From Net: NetName=GND Pin=U11-2
Removed Pin From Net: NetName=GND Pin=U12-2
Removed Pin From Net: NetName=GND Pin=U13-2
Removed Pin From Net: NetName=GND Pin=U14-2
Removed Pin From Net: NetName=GND Pin=U15-2
Removed Pin From Net: NetName=GND Pin=U16-2
Added Pin To Net: NetName=GND_EX Pin=U9-2
Added Pin To Net: NetName=GND_EX Pin=U10-2
Added Pin To Net: NetName=GND_EX Pin=U11-2
Added Pin To Net: NetName=GND_EX Pin=U12-2
Added Pin To Net: NetName=GND_EX Pin=U13-2
Added Pin To Net: NetName=GND_EX Pin=U14-2
Added Pin To Net: NetName=GND_EX Pin=U15-2
Added Pin To Net: NetName=GND_EX Pin=U16-2
