Version 4
SHEET 1 1060 680
WIRE -384 96 -576 96
WIRE -144 96 -304 96
WIRE -48 96 -144 96
WIRE 128 96 32 96
WIRE 608 96 320 96
WIRE 896 96 608 96
WIRE 608 128 608 96
WIRE 896 128 896 96
WIRE -576 144 -576 96
WIRE -144 144 -144 96
WIRE 128 192 32 192
WIRE 384 192 320 192
WIRE 512 192 464 192
WIRE 512 208 512 192
WIRE 560 208 512 208
WIRE 512 240 512 208
WIRE 896 272 896 208
WIRE 1008 288 960 288
WIRE -576 320 -576 224
WIRE -144 320 -144 208
WIRE -144 320 -576 320
WIRE 32 320 32 192
WIRE 32 320 -144 320
WIRE 1008 320 1008 288
WIRE -144 368 -144 320
WIRE 608 368 608 224
WIRE 960 368 960 288
WIRE 960 368 608 368
WIRE 512 384 512 320
WIRE 1008 432 1008 400
WIRE 1008 432 864 432
WIRE 864 480 864 432
FLAG -144 368 0
FLAG 512 384 0
FLAG 864 480 0
FLAG 896 272 0
SYMBOL Optos\\PC817A 224 144 R0
SYMATTR InstName U1
SYMBOL res -288 80 R90
WINDOW 0 0 56 VBottom 2
WINDOW 3 32 56 VTop 2
SYMATTR InstName R2
SYMATTR Value 1800
SYMBOL zener -128 208 R180
WINDOW 0 24 64 Left 2
WINDOW 3 24 0 Left 2
SYMATTR InstName D1
SYMATTR Value EDZV9_1B
SYMBOL voltage -576 128 R0
WINDOW 123 0 0 Left 0
WINDOW 39 0 0 Left 0
SYMATTR InstName V1
SYMATTR Value 28
SYMBOL nmos 560 128 R0
SYMATTR InstName M1
SYMATTR Value IRFH6200
SYMBOL res 480 176 R90
WINDOW 0 0 56 VBottom 2
WINDOW 3 32 56 VTop 2
SYMATTR InstName R3
SYMATTR Value 100
SYMBOL res 528 336 R180
WINDOW 0 36 76 Left 2
WINDOW 3 36 40 Left 2
SYMATTR InstName R4
SYMATTR Value 10k
SYMBOL voltage 896 112 R0
WINDOW 123 0 0 Left 0
WINDOW 39 0 0 Left 0
SYMATTR InstName V2
SYMATTR Value 5
SYMBOL res 48 80 R90
WINDOW 0 0 56 VBottom 2
WINDOW 3 32 56 VTop 2
SYMATTR InstName R1
SYMATTR Value 220
SYMBOL res 992 304 R0
SYMATTR InstName R5
SYMATTR Value 10
TEXT -610 504 Left 2 !.tran 0 2 0 0.1
